{
  "files": {
    "main.css": "/static/css/main.b4bcfc3c.chunk.css",
    "main.js": "/static/js/main.619a29c3.chunk.js",
    "main.js.map": "/static/js/main.619a29c3.chunk.js.map",
    "runtime~main.js": "/static/js/runtime~main.a8a9905a.js",
    "runtime~main.js.map": "/static/js/runtime~main.a8a9905a.js.map",
    "static/js/2.f4f63f56.chunk.js": "/static/js/2.f4f63f56.chunk.js",
    "static/js/2.f4f63f56.chunk.js.map": "/static/js/2.f4f63f56.chunk.js.map",
    "index.html": "/index.html",
    "precache-manifest.d2aa9408b5f436a2569a1fd5a581d77d.js": "/precache-manifest.d2aa9408b5f436a2569a1fd5a581d77d.js",
    "service-worker.js": "/service-worker.js",
    "static/css/main.b4bcfc3c.chunk.css.map": "/static/css/main.b4bcfc3c.chunk.css.map"
  }
}